<?xml version="1.0" encoding="UTF-8" standalone="no"?>
<!-- Created with Inkscape (http://www.inkscape.org/) -->

<svg
   xmlns:dc="http://purl.org/dc/elements/1.1/"
   xmlns:cc="http://creativecommons.org/ns#"
   xmlns:rdf="http://www.w3.org/1999/02/22-rdf-syntax-ns#"
   xmlns:svg="http://www.w3.org/2000/svg"
   xmlns="http://www.w3.org/2000/svg"
   xmlns:xlink="http://www.w3.org/1999/xlink"
   xmlns:sodipodi="http://sodipodi.sourceforge.net/DTD/sodipodi-0.dtd"
   xmlns:inkscape="http://www.inkscape.org/namespaces/inkscape"
   width="1280"
   height="1024"
   id="svg2"
   version="1.1"
   inkscape:version="0.48.2 r9819"
   sodipodi:docname="bug_too_many_developers.svg"
   style="display:inline"
   inkscape:export-filename="C:\Users\kyurshunov\Dropbox\bugs\images\bug_too_many_developers.png"
   inkscape:export-xdpi="18.017578"
   inkscape:export-ydpi="18.017578">
  <title
     id="title2987">too many developers bug</title>
  <defs
     id="defs4" />
  <sodipodi:namedview
     id="base"
     pagecolor="#ffffff"
     bordercolor="#666666"
     borderopacity="1.0"
     inkscape:pageopacity="0.0"
     inkscape:pageshadow="2"
     inkscape:zoom="0.49497475"
     inkscape:cx="155.47443"
     inkscape:cy="496.12211"
     inkscape:document-units="px"
     inkscape:current-layer="layer3"
     showgrid="false"
     inkscape:window-width="1280"
     inkscape:window-height="972"
     inkscape:window-x="-8"
     inkscape:window-y="-8"
     inkscape:window-maximized="1" />
  <metadata
     id="metadata7">
    <rdf:RDF>
      <cc:Work
         rdf:about="">
        <dc:format>image/svg+xml</dc:format>
        <dc:type
           rdf:resource="http://purl.org/dc/dcmitype/StillImage" />
        <dc:title>too many developers bug</dc:title>
        <dc:date>May 2012</dc:date>
        <dc:creator>
          <cc:Agent>
            <dc:title>Alexey S Kyurshunov</dc:title>
          </cc:Agent>
        </dc:creator>
        <dc:subject>
          <rdf:Bag>
            <rdf:li>bug</rdf:li>
            <rdf:li>fly</rdf:li>
            <rdf:li>jar</rdf:li>
            <rdf:li>dev team</rdf:li>
            <rdf:li>fat</rdf:li>
          </rdf:Bag>
        </dc:subject>
        <cc:license
           rdf:resource="http://creativecommons.org/licenses/by/3.0/" />
        <dc:contributor>
          <cc:Agent>
            <dc:title>Alexander V. Elagin</dc:title>
          </cc:Agent>
        </dc:contributor>
      </cc:Work>
    </rdf:RDF>
  </metadata>
  <g
     inkscape:groupmode="layer"
     id="layer1"
     inkscape:label="bkg"
     sodipodi:insensitive="true"
     style="display:none">
    <rect
       style="fill:#e3dbdb;stroke-width:4;stroke-miterlimit:4;stroke-dasharray:none"
       id="rect3756"
       width="1268.7516"
       height="1010.1525"
       x="6.060915"
       y="7.7865467" />
  </g>
  <g
     inkscape:groupmode="layer"
     id="layer3"
     inkscape:label="fly(bug)">
    <path
       style="fill:none;stroke:#000000;stroke-width:6;stroke-linecap:round;stroke-linejoin:miter;stroke-miterlimit:4;stroke-opacity:1;stroke-dasharray:none"
       d="m 500.69473,626.67146 54.10034,-30.52378 8.65213,-51.48597 16.78816,-5.04653"
       id="path4110"
       inkscape:connector-curvature="0"
       sodipodi:nodetypes="cccc" />
    <path
       style="fill:none;stroke:#000000;stroke-width:6;stroke-linecap:round;stroke-linejoin:miter;stroke-miterlimit:4;stroke-opacity:1;stroke-dasharray:none"
       d="m 520.18708,612.94975 61.06072,-13.04787 24.06922,-46.43521 17.58979,0.16231"
       id="path4112"
       inkscape:connector-curvature="0"
       sodipodi:nodetypes="cccc" />
    <path
       style="fill:none;stroke:#000000;stroke-width:6;stroke-linecap:round;stroke-linejoin:miter;stroke-miterlimit:4;stroke-opacity:1;stroke-dasharray:none"
       d="m 521.25306,619.30703 56.02496,-27.19501 12.02459,-50.84025 17.09439,-4.02433"
       id="path4114"
       inkscape:connector-curvature="0"
       sodipodi:nodetypes="cccc" />
    <g
       id="g3954"
       transform="translate(28.284271,75.76144)">
      <path
         inkscape:connector-curvature="0"
         id="path3894"
         d="M 324.36372,653.95553 C 228.68333,697.3199 62.598758,679.7102 143.86348,767.27083 225.12819,854.83152 324.36372,653.95553 324.36372,653.95553 z"
         style="fill:#ffffff;stroke:#000000;stroke-width:4;stroke-linecap:butt;stroke-linejoin:miter;stroke-miterlimit:4;stroke-opacity:1;stroke-dasharray:none;display:inline" />
      <path
         sodipodi:nodetypes="cc"
         inkscape:connector-curvature="0"
         id="path3918"
         d="m 307.14286,666.14286 c -31.42858,13.57143 -162.2809,39.07651 -180.13804,76.21936"
         style="fill:none;stroke:#000000;stroke-width:1px;stroke-linecap:butt;stroke-linejoin:miter;stroke-opacity:1" />
      <path
         sodipodi:nodetypes="ccc"
         inkscape:connector-curvature="0"
         id="path3920"
         d="m 305,674.71429 c -18.57143,10 -147.85714,42.14285 -155.71429,59.28571 -9.63397,8.64463 -7.95741,19.55137 -8.57143,30"
         style="fill:none;stroke:#000000;stroke-width:1px;stroke-linecap:butt;stroke-linejoin:miter;stroke-opacity:1" />
      <path
         sodipodi:nodetypes="cc"
         inkscape:connector-curvature="0"
         id="path3922"
         d="m 180.40178,716.5 c -15.86855,20.27498 -9.03546,45.69215 -4.6875,69.64286"
         style="fill:none;stroke:#000000;stroke-width:1px;stroke-linecap:butt;stroke-linejoin:miter;stroke-opacity:1" />
      <path
         sodipodi:nodetypes="cc"
         inkscape:connector-curvature="0"
         id="path3924"
         d="m 200.68271,708.86197 c -6.47023,25.23809 -1.80095,51.32851 2.88872,76.5666"
         style="fill:none;stroke:#000000;stroke-width:1px;stroke-linecap:butt;stroke-linejoin:miter;stroke-opacity:1" />
      <path
         sodipodi:nodetypes="cc"
         inkscape:connector-curvature="0"
         id="path3926"
         d="m 232.14286,699 c -12.69231,30.43956 -4.12604,51.7683 -5,77.14286"
         style="fill:none;stroke:#000000;stroke-width:1px;stroke-linecap:butt;stroke-linejoin:miter;stroke-opacity:1" />
      <path
         sodipodi:nodetypes="cc"
         inkscape:connector-curvature="0"
         id="path3928"
         d="M 258.77232,690.49554 C 244.50888,711.44792 252.56401,733.04762 254.28571,754"
         style="fill:none;stroke:#000000;stroke-width:1px;stroke-linecap:butt;stroke-linejoin:miter;stroke-opacity:1" />
      <path
         sodipodi:nodetypes="cc"
         inkscape:connector-curvature="0"
         id="path3930"
         d="m 278.4375,684.35714 c -9.14255,14.52381 -5.16958,28.69048 -1.29464,43.21429"
         style="fill:none;stroke:#000000;stroke-width:1px;stroke-linecap:butt;stroke-linejoin:miter;stroke-opacity:1" />
      <path
         sodipodi:nodetypes="cc"
         inkscape:connector-curvature="0"
         id="path3932"
         d="m 169.77678,711.1875 c -18.19697,1.11559 -29.60957,-0.69713 -38.34821,-1.47321"
         style="fill:none;stroke:#000000;stroke-width:1px;stroke-linecap:butt;stroke-linejoin:miter;stroke-opacity:1" />
      <path
         sodipodi:nodetypes="cc"
         inkscape:connector-curvature="0"
         id="path3934"
         d="m 197.14286,733.28572 c 11.59709,5.10803 21.32434,11.31146 29.1319,20.68271"
         style="fill:none;stroke:#000000;stroke-width:1px;stroke-linecap:butt;stroke-linejoin:miter;stroke-opacity:1" />
      <path
         sodipodi:nodetypes="cc"
         inkscape:connector-curvature="0"
         id="path3936"
         d="m 195.58801,701.01256 -21.3023,-9.8697"
         style="fill:none;stroke:#000000;stroke-width:1px;stroke-linecap:butt;stroke-linejoin:miter;stroke-opacity:1" />
      <path
         inkscape:connector-curvature="0"
         id="path3938"
         d="m 150.71428,720.42857 -6.42857,20"
         style="fill:none;stroke:#000000;stroke-width:1px;stroke-linecap:butt;stroke-linejoin:miter;stroke-opacity:1" />
      <path
         sodipodi:nodetypes="cc"
         inkscape:connector-curvature="0"
         id="path3940"
         d="m 246.42857,684.71429 -35.9984,21.08133"
         style="fill:none;stroke:#000000;stroke-width:1px;stroke-linecap:butt;stroke-linejoin:miter;stroke-opacity:1" />
      <path
         sodipodi:nodetypes="cc"
         inkscape:connector-curvature="0"
         id="path3942"
         d="m 250.76566,714.22097 c -12.18704,12.22526 -18.24254,30.26575 -23.80045,50.54067"
         style="fill:none;stroke:#000000;stroke-width:1px;stroke-linecap:butt;stroke-linejoin:miter;stroke-opacity:1" />
      <path
         sodipodi:nodetypes="cc"
         inkscape:connector-curvature="0"
         id="path3944"
         d="m 273.66071,696.36607 c -8.96316,8.36912 -15.81351,22.71405 -22.08606,36.01596"
         style="fill:none;stroke:#000000;stroke-width:1px;stroke-linecap:butt;stroke-linejoin:miter;stroke-opacity:1" />
      <path
         sodipodi:nodetypes="cc"
         inkscape:connector-curvature="0"
         id="path3946"
         d="M 171.42857,739 C 184.0462,744.5489 192.03195,754.26648 200,764"
         style="fill:none;stroke:#000000;stroke-width:1px;stroke-linecap:butt;stroke-linejoin:miter;stroke-opacity:1" />
      <path
         sodipodi:nodetypes="cc"
         inkscape:connector-curvature="0"
         id="path3948"
         d="m 188.57142,750.78572 c -6.73236,3.25121 -11.60611,17.13459 -14.8697,24.72177"
         style="fill:none;stroke:#000000;stroke-width:1px;stroke-linecap:butt;stroke-linejoin:miter;stroke-opacity:1" />
      <path
         sodipodi:nodetypes="cc"
         inkscape:connector-curvature="0"
         id="path3950"
         d="m 208.57143,739.71429 c 1.53776,-13.22263 12.07332,-19.60149 19.31326,-27.9992"
         style="fill:none;stroke:#000000;stroke-width:1px;stroke-linecap:butt;stroke-linejoin:miter;stroke-opacity:1" />
      <path
         sodipodi:nodetypes="cc"
         inkscape:connector-curvature="0"
         id="path3952"
         d="m 170,750.42857 c -8.57143,0.71429 -19.64286,21.78572 -19.64286,21.78572"
         style="fill:none;stroke:#000000;stroke-width:1px;stroke-linecap:butt;stroke-linejoin:miter;stroke-opacity:1" />
    </g>
    <use
       x="0"
       y="0"
       xlink:href="#g3954"
       id="use3814"
       transform="matrix(0.61227029,-0.38764506,0.38764506,0.61227029,-145.16355,420.50019)"
       width="1280"
       height="1024" />
    <path
       style="fill:#ffffff;stroke:#000000;stroke-width:4;stroke-linecap:butt;stroke-linejoin:miter;stroke-miterlimit:4;stroke-opacity:1;stroke-dasharray:none"
       d="M 544.67495,610.78012 C 509.46332,503.83476 459.08585,471.00722 399.5779,482.98706 297.80051,503.47638 320.58789,630.72111 321.74692,644.9406 c 16.75304,205.53426 44.67256,294.64816 248.96094,342.82098 136.55654,32.20112 322.67448,5.93807 375.8139,-80.24761 50.06328,-81.19657 -20.52602,-278.83656 -221.21216,-310.92825 -65.5869,-10.488 -123.88133,-4.4455 -180.63465,14.1944 z"
       id="path3874"
       inkscape:connector-curvature="0"
       sodipodi:nodetypes="csssssc" />
    <path
       style="fill:none;stroke:#000000;stroke-width:4;stroke-linecap:round;stroke-linejoin:miter;stroke-miterlimit:4;stroke-opacity:1;stroke-dasharray:none"
       d="m 545.7771,610.39031 c -48.48731,16.16244 -120.77636,65.2811 -149.06063,123.86995"
       id="path3876"
       inkscape:connector-curvature="0"
       sodipodi:nodetypes="cc" />
    <path
       transform="matrix(1.2502096,0,0,1.2502096,52.209953,25.860804)"
       d="m 347.49246,388.61404 a 22.223356,22.223356 0 1 1 -44.44671,0 22.223356,22.223356 0 1 1 44.44671,0 z"
       sodipodi:ry="22.223356"
       sodipodi:rx="22.223356"
       sodipodi:cy="388.61404"
       sodipodi:cx="325.2691"
       id="path3882"
       style="fill:#ffffff;stroke:#000000;stroke-width:3.19946361;stroke-miterlimit:4;stroke-dasharray:none"
       sodipodi:type="arc" />
    <path
       sodipodi:type="arc"
       style="fill:#ffffff;stroke:#000000;stroke-width:2.74213481;stroke-miterlimit:4;stroke-dasharray:none"
       id="path3880"
       sodipodi:cx="325.2691"
       sodipodi:cy="388.61404"
       sodipodi:rx="22.223356"
       sodipodi:ry="22.223356"
       d="m 347.49246,388.61404 a 22.223356,22.223356 0 1 1 -44.44671,0 22.223356,22.223356 0 1 1 44.44671,0 z"
       transform="matrix(1.4587175,0,0,1.4587175,-65.108722,-40.01603)" />
    <path
       d="m 326.27927,418.91864 a 9.0913725,9.0913725 0 1 1 -18.18275,0 9.0913725,9.0913725 0 1 1 18.18275,0 z"
       sodipodi:ry="9.0913725"
       sodipodi:rx="9.0913725"
       sodipodi:cy="418.91864"
       sodipodi:cx="317.1879"
       id="path3886"
       style="fill:#000000;stroke:none"
       sodipodi:type="arc"
       transform="translate(104.80604,96.326713)" />
    <path
       sodipodi:type="arc"
       style="fill:#000000;stroke:none"
       id="path3884"
       sodipodi:cx="317.1879"
       sodipodi:cy="418.91864"
       sodipodi:rx="9.0913725"
       sodipodi:ry="9.0913725"
       d="m 326.27927,418.91864 a 9.0913725,9.0913725 0 1 1 -18.18275,0 9.0913725,9.0913725 0 1 1 18.18275,0 z"
       transform="translate(139.15123,84.204881)" />
    <path
       sodipodi:nodetypes="ccc"
       inkscape:connector-curvature="0"
       id="path3916"
       d="m 430.01424,487.73591 c 0,-20.20305 10.6066,-30.30458 36.87057,-22.72843 -33.84011,-6.566 -36.87057,22.72843 -36.87057,22.72843 z"
       style="fill:#000000;stroke:none" />
    <path
       style="fill:#000000;stroke:none"
       d="m 358.79936,479.75088 c 20.73416,-23.09653 43.22692,-23.75937 65.47712,11.85624 -31.9481,-42.2361 -65.47712,-11.85624 -65.47712,-11.85624 z"
       id="path3914"
       inkscape:connector-curvature="0"
       sodipodi:nodetypes="ccc" />
    <path
       sodipodi:type="arc"
       style="fill:#ffffff;stroke:#000000;stroke-width:1.00862074;stroke-miterlimit:4;stroke-dasharray:none"
       id="path3816"
       sodipodi:cx="890"
       sodipodi:cy="849.71429"
       sodipodi:rx="15.714286"
       sodipodi:ry="15.714286"
       d="m 905.71429,849.71429 a 15.714286,15.714286 0 1 1 -31.42858,0 15.714286,15.714286 0 1 1 31.42858,0 z"
       transform="matrix(1.7918672,0,0,1.982906,-679.36475,-813.47497)" />
    <path
       sodipodi:type="arc"
       style="fill:#000000;stroke:none"
       id="path3818"
       sodipodi:cx="907.5"
       sodipodi:cy="859.35712"
       sodipodi:rx="7.1428571"
       sodipodi:ry="7.1428571"
       d="m 914.64286,859.35712 a 7.1428571,7.1428571 0 1 1 -14.28572,0 7.1428571,7.1428571 0 1 1 14.28572,0 z"
       transform="translate(9.6428571,13.142857)" />
    <path
       sodipodi:type="arc"
       style="fill:none;stroke:#000000;stroke-width:2;stroke-miterlimit:4;stroke-dasharray:none"
       id="path3820"
       sodipodi:cx="847.14282"
       sodipodi:cy="799.71429"
       sodipodi:rx="60"
       sodipodi:ry="60"
       d="m 907.14282,799.71429 a 60,60 0 1 1 -120,0 60,60 0 1 1 120,0 z"
       transform="matrix(0.84166667,0,0,1,195.05952,68.571429)" />
    <path
       style="fill:none;stroke:#000000;stroke-width:2;stroke-linecap:butt;stroke-linejoin:miter;stroke-miterlimit:4;stroke-opacity:1;stroke-dasharray:none"
       d="m 957.62461,805.80705 c -6.06092,-49.49748 -55.11063,-48.372 -75.76144,-44.44671 -37.25529,7.08147 -70.94546,64.74743 -61.61931,135.36044 6.63172,50.21211 62.62946,67.68022 84.85282,53.53808"
       id="path3826"
       inkscape:connector-curvature="0"
       sodipodi:nodetypes="cssc" />
    <path
       style="fill:none;stroke:#000000;stroke-width:2;stroke-linecap:butt;stroke-linejoin:miter;stroke-miterlimit:4;stroke-opacity:1;stroke-dasharray:none"
       d="m 926.25912,725.65837 c -22.22336,-30.30458 -60.78804,-31.52556 -86.45471,-20.0805 -68.20276,30.41239 -96.41915,95.30651 -85.22046,200.23428 2.24539,21.03852 21.2132,66.67007 80.8122,73.74114"
       id="path3828"
       inkscape:connector-curvature="0"
       sodipodi:nodetypes="cssc" />
    <path
       style="fill:none;stroke:#000000;stroke-width:2;stroke-linecap:butt;stroke-linejoin:miter;stroke-miterlimit:4;stroke-opacity:1;stroke-dasharray:none"
       d="m 857.14285,651.85714 c -29.28571,-12.14285 -76.64258,-4.12111 -100,8.57144 -76.70387,41.68132 -104.28171,103.33497 -88.57142,224.2857 4.33177,33.34952 56.42856,115.00001 95.71428,111.42858"
       id="path3830"
       inkscape:connector-curvature="0"
       sodipodi:nodetypes="cssc" />
    <path
       style="fill:none;stroke:#000000;stroke-width:2;stroke-linecap:butt;stroke-linejoin:miter;stroke-miterlimit:4;stroke-opacity:1;stroke-dasharray:none"
       d="m 776.42857,609.71429 c -35,-4.28572 -80.81057,6.23309 -95.71429,14.99999 C 547.14285,703.28571 572.6782,859.64419 574.28571,874 577.02028,898.42088 615,996.85715 688.57142,1001.1429"
       id="path3832"
       inkscape:connector-curvature="0"
       sodipodi:nodetypes="cssc" />
    <path
       style="fill:none;stroke:#000000;stroke-width:2;stroke-linecap:butt;stroke-linejoin:miter;stroke-miterlimit:4;stroke-opacity:1;stroke-dasharray:none"
       d="m 634.28571,591.85715 c -52.85715,7.85713 -173.26947,46.3239 -162.14286,256.42857 4.88745,92.29001 71.42857,129.99999 90.71429,136.42856"
       id="path3834"
       inkscape:connector-curvature="0"
       sodipodi:nodetypes="csc" />
    <path
       style="fill:none;stroke:#000000;stroke-width:2;stroke-linecap:butt;stroke-linejoin:miter;stroke-miterlimit:4;stroke-opacity:1;stroke-dasharray:none"
       d="m 439.92821,937.32632 c -42.02902,-51.7034 -56.1327,-170.57415 10.15228,-269.36095"
       id="path3836"
       inkscape:connector-curvature="0"
       sodipodi:nodetypes="cc" />
    <path
       style="fill:none;stroke:#000000;stroke-width:1px;stroke-linecap:butt;stroke-linejoin:miter;stroke-opacity:1"
       d="m 404.64286,808.64286 16.07142,1.78571"
       id="path3838"
       inkscape:connector-curvature="0" />
    <path
       style="fill:none;stroke:#000000;stroke-width:1px;stroke-linecap:butt;stroke-linejoin:miter;stroke-opacity:1"
       d="m 404.82143,805.96429 9.28571,0.89285"
       id="path3840"
       inkscape:connector-curvature="0" />
    <path
       style="fill:none;stroke:#000000;stroke-width:1px;stroke-linecap:butt;stroke-linejoin:miter;stroke-opacity:1"
       d="m 404.64286,811.32143 5,1.07143"
       id="path3842"
       inkscape:connector-curvature="0" />
    <path
       style="fill:none;stroke:#000000;stroke-width:1px;stroke-linecap:butt;stroke-linejoin:miter;stroke-opacity:1"
       d="m 430.35714,701.85714 17.5,-1.78571"
       id="path3844"
       inkscape:connector-curvature="0" />
    <path
       style="fill:none;stroke:#000000;stroke-width:1px;stroke-linecap:butt;stroke-linejoin:miter;stroke-opacity:1"
       d="m 433.21428,696.85714 7.5,-0.71428"
       id="path3846"
       inkscape:connector-curvature="0" />
    <path
       style="fill:none;stroke:#000000;stroke-width:1px;stroke-linecap:butt;stroke-linejoin:miter;stroke-opacity:1"
       d="M 428.57143,707.21429 437.5,705.78572"
       id="path3848"
       inkscape:connector-curvature="0" />
    <path
       style="fill:none;stroke:#000000;stroke-width:1px;stroke-linecap:butt;stroke-linejoin:miter;stroke-opacity:1"
       d="m 412.85714,882.57143 16.42857,7.14286"
       id="path3850"
       inkscape:connector-curvature="0" />
    <path
       style="fill:none;stroke:#000000;stroke-width:1px;stroke-linecap:butt;stroke-linejoin:miter;stroke-opacity:1"
       d="m 414.64286,888.28571 7.49999,3.57143"
       id="path3852"
       inkscape:connector-curvature="0" />
    <path
       style="fill:none;stroke:#000000;stroke-width:1px;stroke-linecap:butt;stroke-linejoin:miter;stroke-opacity:1"
       d="m 437.85714,936.85714 10.71429,11.78572"
       id="path3858"
       inkscape:connector-curvature="0" />
    <path
       style="fill:none;stroke:#000000;stroke-width:1px;stroke-linecap:butt;stroke-linejoin:miter;stroke-opacity:1"
       d="m 445,940.42857 12.85714,14.64286"
       id="path3860"
       inkscape:connector-curvature="0" />
    <path
       style="fill:none;stroke:#000000;stroke-width:1px;stroke-linecap:butt;stroke-linejoin:miter;stroke-opacity:1"
       d="m 478.21428,748.64286 16.42857,0"
       id="path3862"
       inkscape:connector-curvature="0" />
    <path
       style="fill:none;stroke:#000000;stroke-width:1px;stroke-linecap:butt;stroke-linejoin:miter;stroke-opacity:1"
       d="M 478.21428,745.07143 490,744"
       id="path3864"
       inkscape:connector-curvature="0" />
    <path
       style="fill:none;stroke:#000000;stroke-width:1px;stroke-linecap:butt;stroke-linejoin:miter;stroke-opacity:1"
       d="m 473.57143,780.78572 10.71428,0"
       id="path3866"
       inkscape:connector-curvature="0" />
    <path
       style="fill:none;stroke:#000000;stroke-width:1px;stroke-linecap:butt;stroke-linejoin:miter;stroke-opacity:1"
       d="M 473.21428,857.57143 488.92857,859"
       id="path3868"
       inkscape:connector-curvature="0" />
    <path
       style="fill:none;stroke:#000000;stroke-width:1px;stroke-linecap:butt;stroke-linejoin:miter;stroke-opacity:1"
       d="m 472.85714,862.21429 10,1.78571"
       id="path3870"
       inkscape:connector-curvature="0" />
    <path
       style="fill:none;stroke:#000000;stroke-width:1px;stroke-linecap:butt;stroke-linejoin:miter;stroke-opacity:1"
       d="M 472.14285,852.92857 477.5,853.28572"
       id="path3872"
       inkscape:connector-curvature="0" />
    <path
       style="fill:none;stroke:#000000;stroke-width:1px;stroke-linecap:butt;stroke-linejoin:miter;stroke-opacity:1"
       d="m 515.71428,951.14286 16.42857,-0.35715"
       id="path3875"
       inkscape:connector-curvature="0" />
    <path
       style="fill:none;stroke:#000000;stroke-width:1px;stroke-linecap:butt;stroke-linejoin:miter;stroke-opacity:1"
       d="m 517.85714,954 7.5,0"
       id="path3877"
       inkscape:connector-curvature="0" />
    <path
       style="fill:none;stroke:#000000;stroke-width:1px;stroke-linecap:butt;stroke-linejoin:miter;stroke-opacity:1"
       d="m 563.16004,615.89837 17.67767,2.02031"
       id="path3879"
       inkscape:connector-curvature="0" />
    <path
       style="fill:none;stroke:#000000;stroke-width:1px;stroke-linecap:butt;stroke-linejoin:miter;stroke-opacity:1"
       d="m 558.61435,620.44406 9.09138,2.02031"
       id="path3881"
       inkscape:connector-curvature="0" />
    <path
       style="fill:none;stroke:#000000;stroke-width:1px;stroke-linecap:butt;stroke-linejoin:miter;stroke-opacity:1"
       d="m 562.46556,617.79241 4.86136,1.13642"
       id="path3883"
       inkscape:connector-curvature="0" />
    <path
       style="fill:none;stroke:#000000;stroke-width:1px;stroke-linecap:butt;stroke-linejoin:miter;stroke-opacity:1"
       d="m 509.62196,669.43646 11.86929,1.01015"
       id="path3885"
       inkscape:connector-curvature="0" />
    <path
       style="fill:none;stroke:#000000;stroke-width:1px;stroke-linecap:butt;stroke-linejoin:miter;stroke-opacity:1"
       d="m 510.63211,667.28988 6.9448,0.25254"
       id="path3887"
       inkscape:connector-curvature="0" />
    <path
       style="fill:none;stroke:#000000;stroke-width:1px;stroke-linecap:butt;stroke-linejoin:miter;stroke-opacity:1"
       d="m 577.30218,885.10403 12.6269,0"
       id="path3889"
       inkscape:connector-curvature="0" />
    <path
       style="fill:none;stroke:#000000;stroke-width:1px;stroke-linecap:butt;stroke-linejoin:miter;stroke-opacity:1"
       d="m 576.16576,882.64178 7.63927,0.0631"
       id="path3891"
       inkscape:connector-curvature="0" />
    <path
       style="fill:none;stroke:#000000;stroke-width:1px;stroke-linecap:butt;stroke-linejoin:miter;stroke-opacity:1"
       d="m 577.99666,889.46031 5.4927,-0.25254"
       id="path3893"
       inkscape:connector-curvature="0" />
    <path
       style="fill:none;stroke:#000000;stroke-width:1px;stroke-linecap:butt;stroke-linejoin:miter;stroke-opacity:1"
       d="m 617.2032,961.37054 13.8896,-1.01015"
       id="path3895"
       inkscape:connector-curvature="0" />
    <path
       style="fill:none;stroke:#000000;stroke-width:1px;stroke-linecap:butt;stroke-linejoin:miter;stroke-opacity:1"
       d="m 614.17274,957.58247 10.10153,-0.25254"
       id="path3897"
       inkscape:connector-curvature="0" />
    <path
       style="fill:none;stroke:#000000;stroke-width:1px;stroke-linecap:butt;stroke-linejoin:miter;stroke-opacity:1"
       d="m 620.73874,965.15861 6.31345,-0.75761"
       id="path3899"
       inkscape:connector-curvature="0" />
    <path
       style="fill:none;stroke:#000000;stroke-width:1px;stroke-linecap:butt;stroke-linejoin:miter;stroke-opacity:1"
       d="m 571.74634,807.32228 15.65736,1.01015"
       id="path3901"
       inkscape:connector-curvature="0" />
    <path
       style="fill:none;stroke:#000000;stroke-width:1px;stroke-linecap:butt;stroke-linejoin:miter;stroke-opacity:1"
       d="m 572.75649,802.77659 10.10153,1.51523"
       id="path3903"
       inkscape:connector-curvature="0" />
    <path
       style="fill:none;stroke:#000000;stroke-width:1px;stroke-linecap:butt;stroke-linejoin:miter;stroke-opacity:1"
       d="m 588.41385,733.07607 14.14214,2.0203"
       id="path3905"
       inkscape:connector-curvature="0" />
    <path
       style="fill:none;stroke:#000000;stroke-width:1px;stroke-linecap:butt;stroke-linejoin:miter;stroke-opacity:1"
       d="m 590.43416,729.54053 6.06091,1.01016"
       id="path3907"
       inkscape:connector-curvature="0" />
    <path
       style="fill:none;stroke:#000000;stroke-width:1px;stroke-linecap:butt;stroke-linejoin:miter;stroke-opacity:1"
       d="m 591.82312,726.005 8.9651,1.6415"
       id="path3909"
       inkscape:connector-curvature="0" />
    <path
       style="fill:none;stroke:#000000;stroke-width:1px;stroke-linecap:butt;stroke-linejoin:miter;stroke-opacity:1"
       d="m 653.56869,643.17249 10.85914,6.06092"
       id="path3911"
       inkscape:connector-curvature="0" />
    <path
       style="fill:none;stroke:#000000;stroke-width:1px;stroke-linecap:butt;stroke-linejoin:miter;stroke-opacity:1"
       d="m 651.80093,644.94026 5.3033,3.53553"
       id="path3913"
       inkscape:connector-curvature="0" />
    <path
       style="fill:none;stroke:#000000;stroke-width:1px;stroke-linecap:butt;stroke-linejoin:miter;stroke-opacity:1"
       d="m 656.85169,640.39457 5.05076,2.77792"
       id="path3915"
       inkscape:connector-curvature="0" />
    <path
       style="fill:none;stroke:#000000;stroke-width:1px;stroke-linecap:butt;stroke-linejoin:miter;stroke-opacity:1"
       d="m 766.25,609.17857 13.39285,8.75"
       id="path3917"
       inkscape:connector-curvature="0" />
    <path
       style="fill:none;stroke:#000000;stroke-width:1px;stroke-linecap:butt;stroke-linejoin:miter;stroke-opacity:1"
       d="m 760.71428,609.35714 c 1.07143,0.17858 7.5,4.46429 7.5,4.46429"
       id="path3919"
       inkscape:connector-curvature="0" />
    <path
       style="fill:none;stroke:#000000;stroke-width:1px;stroke-linecap:butt;stroke-linejoin:miter;stroke-opacity:1"
       d="M 758.92857,658.28572 772.5,672.92857"
       id="path3921"
       inkscape:connector-curvature="0" />
    <path
       style="fill:none;stroke:#000000;stroke-width:1px;stroke-linecap:butt;stroke-linejoin:miter;stroke-opacity:1"
       d="m 753.57142,661.85714 8.57143,9.28572"
       id="path3923"
       inkscape:connector-curvature="0" />
    <path
       style="fill:none;stroke:#000000;stroke-width:1px;stroke-linecap:butt;stroke-linejoin:miter;stroke-opacity:1"
       d="m 763.92857,656.5 7.14285,7.5"
       id="path3925"
       inkscape:connector-curvature="0" />
    <path
       style="fill:none;stroke:#000000;stroke-width:1px;stroke-linecap:butt;stroke-linejoin:miter;stroke-opacity:1"
       d="M 690.35714,717.92857 705,727.21429"
       id="path3927"
       inkscape:connector-curvature="0" />
    <path
       style="fill:none;stroke:#000000;stroke-width:1px;stroke-linecap:butt;stroke-linejoin:miter;stroke-opacity:1"
       d="m 687.85714,723.28572 7.85714,3.57142"
       id="path3929"
       inkscape:connector-curvature="0" />
    <path
       style="fill:none;stroke:#000000;stroke-width:1px;stroke-linecap:butt;stroke-linejoin:miter;stroke-opacity:1"
       d="M 692.85714,715.42857 699.64285,719"
       id="path3931"
       inkscape:connector-curvature="0" />
    <path
       style="fill:none;stroke:#000000;stroke-width:1px;stroke-linecap:butt;stroke-linejoin:miter;stroke-opacity:1"
       d="M 665.71428,793.64286 682.5,797.92857"
       id="path3933"
       inkscape:connector-curvature="0" />
    <path
       style="fill:none;stroke:#000000;stroke-width:1px;stroke-linecap:butt;stroke-linejoin:miter;stroke-opacity:1"
       d="M 665.35714,799 675,801.14286"
       id="path3935"
       inkscape:connector-curvature="0" />
    <path
       style="fill:none;stroke:#000000;stroke-width:1px;stroke-linecap:butt;stroke-linejoin:miter;stroke-opacity:1"
       d="M 667.85714,877.92857 683.57143,876.5"
       id="path3937"
       inkscape:connector-curvature="0" />
    <path
       style="fill:none;stroke:#000000;stroke-width:1px;stroke-linecap:butt;stroke-linejoin:miter;stroke-opacity:1"
       d="m 668.21428,882.92857 7.5,-1.07143"
       id="path3939"
       inkscape:connector-curvature="0" />
    <path
       style="fill:none;stroke:#000000;stroke-width:1px;stroke-linecap:butt;stroke-linejoin:miter;stroke-opacity:1"
       d="m 669.28571,887.21429 11.42857,-0.53572"
       id="path3941"
       inkscape:connector-curvature="0" />
    <path
       style="fill:none;stroke:#000000;stroke-width:1px;stroke-linecap:butt;stroke-linejoin:miter;stroke-opacity:1"
       d="m 713.21428,966.14286 14.64286,-4.28572"
       id="path3943"
       inkscape:connector-curvature="0" />
    <path
       style="fill:none;stroke:#000000;stroke-width:1px;stroke-linecap:butt;stroke-linejoin:miter;stroke-opacity:1"
       d="m 715.98214,969.17857 4.375,-0.625"
       id="path3945"
       inkscape:connector-curvature="0" />
    <path
       style="fill:none;stroke:#000000;stroke-width:1px;stroke-linecap:butt;stroke-linejoin:miter;stroke-opacity:1"
       d="m 710.98214,962.92857 7.67857,-1.96428"
       id="path3947"
       inkscape:connector-curvature="0" />
    <path
       style="fill:none;stroke:#000000;stroke-width:1px;stroke-linecap:butt;stroke-linejoin:miter;stroke-opacity:1"
       d="m 678.31743,1000.7665 23.23351,5.5558"
       id="path3949"
       inkscape:connector-curvature="0" />
    <path
       style="fill:none;stroke:#000000;stroke-width:1px;stroke-linecap:butt;stroke-linejoin:miter;stroke-opacity:1"
       d="m 757.6144,995.71573 39.39595,0.50508"
       id="path3951"
       inkscape:connector-curvature="0" />
    <path
       style="fill:none;stroke:#000000;stroke-width:1px;stroke-linecap:butt;stroke-linejoin:miter;stroke-opacity:1"
       d="m 557.09913,981.06852 27.27411,14.64721"
       id="path3953"
       inkscape:connector-curvature="0" />
    <path
       style="fill:none;stroke:#000000;stroke-width:1px;stroke-linecap:butt;stroke-linejoin:miter;stroke-opacity:1"
       d="m 688.21428,1001.3214 c 3.21429,1.0715 14.64286,2.5 14.64286,2.5"
       id="path3955"
       inkscape:connector-curvature="0" />
    <path
       style="fill:none;stroke:#000000;stroke-width:1px;stroke-linecap:butt;stroke-linejoin:miter;stroke-opacity:1"
       d="m 760.35714,996.5 19.28571,2.14286"
       id="path3957"
       inkscape:connector-curvature="0" />
    <path
       style="fill:none;stroke:#000000;stroke-width:1px;stroke-linecap:butt;stroke-linejoin:miter;stroke-opacity:1"
       d="m 835,980.07143 14.28571,3.21428"
       id="path3959"
       inkscape:connector-curvature="0" />
    <path
       style="fill:none;stroke:#000000;stroke-width:1px;stroke-linecap:butt;stroke-linejoin:miter;stroke-opacity:1"
       d="m 836.78571,978.64286 17.5,1.42857"
       id="path3961"
       inkscape:connector-curvature="0" />
    <path
       style="fill:none;stroke:#000000;stroke-width:1px;stroke-linecap:butt;stroke-linejoin:miter;stroke-opacity:1"
       d="m 892.97484,955.8147 17.1726,-17.67767"
       id="path3963"
       inkscape:connector-curvature="0" />
    <path
       style="fill:none;stroke:#000000;stroke-width:1px;stroke-linecap:butt;stroke-linejoin:miter;stroke-opacity:1"
       d="m 895.50023,955.30963 16.16244,-3.03046"
       id="path3965"
       inkscape:connector-curvature="0" />
    <path
       style="fill:none;stroke:#000000;stroke-width:1px;stroke-linecap:butt;stroke-linejoin:miter;stroke-opacity:1"
       d="m 892.46977,953.7944 3.53553,-7.57615"
       id="path3967"
       inkscape:connector-curvature="0" />
    <path
       style="fill:none;stroke:#000000;stroke-width:1px;stroke-linecap:butt;stroke-linejoin:miter;stroke-opacity:1"
       d="M 798.46244,968.82042 820.6858,962.7595"
       id="path3969"
       inkscape:connector-curvature="0" />
    <path
       style="fill:none;stroke:#000000;stroke-width:1px;stroke-linecap:butt;stroke-linejoin:miter;stroke-opacity:1"
       d="m 795.74766,966.10563 9.59645,-4.04061"
       id="path3971"
       inkscape:connector-curvature="0" />
    <path
       style="fill:none;stroke:#000000;stroke-width:1px;stroke-linecap:butt;stroke-linejoin:miter;stroke-opacity:1"
       d="m 798.39931,967.36833 5.05077,-2.52539"
       id="path3973"
       inkscape:connector-curvature="0" />
    <path
       style="fill:none;stroke:#000000;stroke-width:1px;stroke-linecap:butt;stroke-linejoin:miter;stroke-opacity:1"
       d="m 757.6144,920.96444 17.67767,-3.53553"
       id="path3976"
       inkscape:connector-curvature="0" />
    <path
       style="fill:none;stroke:#000000;stroke-width:1px;stroke-linecap:butt;stroke-linejoin:miter;stroke-opacity:1"
       d="m 759.63471,924.49997 8.08122,-2.52538"
       id="path3978"
       inkscape:connector-curvature="0" />
    <path
       style="fill:none;stroke:#000000;stroke-width:1px;stroke-linecap:butt;stroke-linejoin:miter;stroke-opacity:1"
       d="m 752.05857,849.74869 12.6269,0"
       id="path3980"
       inkscape:connector-curvature="0" />
    <path
       style="fill:none;stroke:#000000;stroke-width:1px;stroke-linecap:butt;stroke-linejoin:miter;stroke-opacity:1"
       d="m 753.06872,846.71823 6.56599,0.50508"
       id="path3982"
       inkscape:connector-curvature="0" />
    <path
       style="fill:none;stroke:#000000;stroke-width:1px;stroke-linecap:butt;stroke-linejoin:miter;stroke-opacity:1"
       d="m 752.56364,851.76899 5.55584,0.50508"
       id="path3984"
       inkscape:connector-curvature="0" />
    <path
       style="fill:none;stroke:#000000;stroke-width:1px;stroke-linecap:butt;stroke-linejoin:miter;stroke-opacity:1"
       d="m 769.73623,771.96694 13.63706,6.06092"
       id="path3986"
       inkscape:connector-curvature="0" />
    <path
       style="fill:none;stroke:#000000;stroke-width:1px;stroke-linecap:butt;stroke-linejoin:miter;stroke-opacity:1"
       d="m 771.75654,767.92633 6.56599,3.03046"
       id="path3988"
       inkscape:connector-curvature="0" />
    <path
       style="fill:none;stroke:#000000;stroke-width:1px;stroke-linecap:butt;stroke-linejoin:miter;stroke-opacity:1"
       d="m 767.21085,775.50248 8.08122,3.53553"
       id="path3990"
       inkscape:connector-curvature="0" />
    <path
       style="fill:none;stroke:#000000;stroke-width:1px;stroke-linecap:butt;stroke-linejoin:miter;stroke-opacity:1"
       d="m 843.98245,703.27657 9.09137,14.14213"
       id="path3992"
       inkscape:connector-curvature="0" />
    <path
       style="fill:none;stroke:#000000;stroke-width:1px;stroke-linecap:butt;stroke-linejoin:miter;stroke-opacity:1"
       d="m 840.44691,704.7918 3.53554,8.08122"
       id="path3994"
       inkscape:connector-curvature="0" />
    <path
       style="fill:none;stroke:#000000;stroke-width:1px;stroke-linecap:butt;stroke-linejoin:miter;stroke-opacity:1"
       d="m 850.04336,702.26642 2.02031,5.05076"
       id="path3996"
       inkscape:connector-curvature="0" />
    <path
       style="fill:none;stroke:#000000;stroke-width:1px;stroke-linecap:butt;stroke-linejoin:miter;stroke-opacity:1"
       d="m 913.68297,710.85271 2.52538,12.62691"
       id="path3998"
       inkscape:connector-curvature="0" />
    <path
       style="fill:none;stroke:#000000;stroke-width:1px;stroke-linecap:butt;stroke-linejoin:miter;stroke-opacity:1"
       d="m 917.72358,714.89332 12.62691,7.57615"
       id="path4000"
       inkscape:connector-curvature="0" />
    <path
       style="fill:none;stroke:#000000;stroke-width:1px;stroke-linecap:butt;stroke-linejoin:miter;stroke-opacity:1"
       d="m 917.47105,715.27213 3.59866,14.71035"
       id="path4002"
       inkscape:connector-curvature="0" />
    <path
       style="fill:none;stroke:#000000;stroke-width:1px;stroke-linecap:butt;stroke-linejoin:miter;stroke-opacity:1"
       d="m 854.58905,776.00755 6.56599,12.12183"
       id="path4004"
       inkscape:connector-curvature="0" />
    <path
       style="fill:none;stroke:#000000;stroke-width:1px;stroke-linecap:butt;stroke-linejoin:miter;stroke-opacity:1"
       d="m 858.12458,771.96694 3.03046,7.07107"
       id="path4006"
       inkscape:connector-curvature="0" />
    <path
       style="fill:none;stroke:#000000;stroke-width:1px;stroke-linecap:butt;stroke-linejoin:miter;stroke-opacity:1"
       d="m 850.04336,780.55324 3.03046,4.04061"
       id="path4008"
       inkscape:connector-curvature="0" />
    <path
       style="fill:none;stroke:#000000;stroke-width:1px;stroke-linecap:butt;stroke-linejoin:miter;stroke-opacity:1"
       d="m 823.27432,837.62686 11.61675,3.03045"
       id="path4010"
       inkscape:connector-curvature="0" />
    <path
       style="fill:none;stroke:#000000;stroke-width:1px;stroke-linecap:butt;stroke-linejoin:miter;stroke-opacity:1"
       d="m 821.25401,841.66747 5.55584,0"
       id="path4012"
       inkscape:connector-curvature="0" />
    <path
       style="fill:none;stroke:#000000;stroke-width:1px;stroke-linecap:butt;stroke-linejoin:miter;stroke-opacity:1"
       d="m 822.51671,911.36799 11.36421,-3.03046"
       id="path4014"
       inkscape:connector-curvature="0" />
    <path
       style="fill:none;stroke:#000000;stroke-width:1px;stroke-linecap:butt;stroke-linejoin:miter;stroke-opacity:1"
       d="m 825.29462,914.65099 6.31346,-2.02031"
       id="path4016"
       inkscape:connector-curvature="0" />
    <path
       style="fill:none;stroke:#000000;stroke-width:1px;stroke-linecap:butt;stroke-linejoin:miter;stroke-opacity:1"
       d="m 823.02178,906.56977 15.65737,-3.283"
       id="path4018"
       inkscape:connector-curvature="0" />
    <path
       style="fill:none;stroke:#000000;stroke-width:1px;stroke-linecap:butt;stroke-linejoin:miter;stroke-opacity:1"
       d="m 881.10555,918.6916 11.8693,-7.07107"
       id="path4020"
       inkscape:connector-curvature="0" />
    <path
       style="fill:none;stroke:#000000;stroke-width:1px;stroke-linecap:butt;stroke-linejoin:miter;stroke-opacity:1"
       d="m 884.13601,921.46952 3.78807,-3.53554"
       id="path4022"
       inkscape:connector-curvature="0" />
    <path
       style="fill:none;stroke:#000000;stroke-width:1px;stroke-linecap:butt;stroke-linejoin:miter;stroke-opacity:1"
       d="m 878.32763,916.41875 5.05077,-2.52538"
       id="path4024"
       inkscape:connector-curvature="0" />
    <path
       style="fill:none;stroke:#000000;stroke-width:1px;stroke-linecap:butt;stroke-linejoin:miter;stroke-opacity:1"
       d="m 857.87204,865.91113 14.14214,0"
       id="path4026"
       inkscape:connector-curvature="0" />
    <path
       style="fill:none;stroke:#000000;stroke-width:1px;stroke-linecap:butt;stroke-linejoin:miter;stroke-opacity:1"
       d="m 858.12458,862.37559 5.05077,0.25254"
       id="path4028"
       inkscape:connector-curvature="0" />
    <path
       style="fill:none;stroke:#000000;stroke-width:1px;stroke-linecap:butt;stroke-linejoin:miter;stroke-opacity:1"
       d="m 876.30733,821.96949 7.07107,7.57615"
       id="path4030"
       inkscape:connector-curvature="0" />
    <path
       style="fill:none;stroke:#000000;stroke-width:1px;stroke-linecap:butt;stroke-linejoin:miter;stroke-opacity:1"
       d="m 879.08525,818.93903 2.52538,3.78808"
       id="path4032"
       inkscape:connector-curvature="0" />
    <path
       style="fill:none;stroke:#000000;stroke-width:1px;stroke-linecap:butt;stroke-linejoin:miter;stroke-opacity:1"
       d="m 881.61063,816.66619 9.34391,10.6066"
       id="path4034"
       inkscape:connector-curvature="0" />
    <path
       style="fill:none;stroke:#000000;stroke-width:1px;stroke-linecap:butt;stroke-linejoin:miter;stroke-opacity:1"
       d="m 921.76419,810.60528 0.75762,8.58629"
       id="path4036"
       inkscape:connector-curvature="0" />
    <path
       style="fill:none;stroke:#000000;stroke-width:1px;stroke-linecap:butt;stroke-linejoin:miter;stroke-opacity:1"
       d="m 918.22866,809.09005 -0.50508,13.38452"
       id="path4038"
       inkscape:connector-curvature="0" />
    <path
       style="fill:none;stroke:#000000;stroke-width:1px;stroke-linecap:butt;stroke-linejoin:miter;stroke-opacity:1"
       d="m 950.04846,836.6167 -8.08122,9.09138"
       id="path4040"
       inkscape:connector-curvature="0" />
    <path
       style="fill:none;stroke:#000000;stroke-width:1px;stroke-linecap:butt;stroke-linejoin:miter;stroke-opacity:1"
       d="m 952.06877,840.40478 -4.29315,3.53553"
       id="path4042"
       inkscape:connector-curvature="0" />
    <path
       style="fill:none;stroke:#000000;stroke-width:1px;stroke-linecap:butt;stroke-linejoin:miter;stroke-opacity:1"
       d="m 947.01801,830.55579 -1.76777,3.78807"
       id="path4044"
       inkscape:connector-curvature="0" />
    <path
       style="fill:none;stroke:#000000;stroke-width:1px;stroke-linecap:butt;stroke-linejoin:miter;stroke-opacity:1"
       d="m 954.08907,889.14464 c -1.01015,0 -8.33375,-3.283 -8.33375,-3.283"
       id="path4046"
       inkscape:connector-curvature="0" />
    <path
       style="fill:none;stroke:#000000;stroke-width:1px;stroke-linecap:butt;stroke-linejoin:miter;stroke-opacity:1"
       d="m 959.64491,870.45681 2.77792,17.42514"
       id="path4048"
       inkscape:connector-curvature="0" />
    <path
       style="fill:none;stroke:#000000;stroke-width:1px;stroke-linecap:butt;stroke-linejoin:miter;stroke-opacity:1"
       d="m 959.64491,866.4162 4.04061,13.38452"
       id="path4050"
       inkscape:connector-curvature="0" />
    <path
       style="fill:none;stroke:#000000;stroke-width:1px;stroke-linecap:butt;stroke-linejoin:miter;stroke-opacity:1"
       d="m 939.44186,917.68145 18.43529,-5.30331"
       id="path4052"
       inkscape:connector-curvature="0" />
    <path
       style="fill:none;stroke:#000000;stroke-width:1px;stroke-linecap:butt;stroke-linejoin:miter;stroke-opacity:1"
       d="m 939.6944,913.3883 10.6066,-2.02031"
       id="path4054"
       inkscape:connector-curvature="0" />
    <path
       style="fill:none;stroke:#000000;stroke-width:1px;stroke-linecap:butt;stroke-linejoin:miter;stroke-opacity:1"
       d="m 952.32131,892.17509 -5.05077,-2.52538"
       id="path4056"
       inkscape:connector-curvature="0" />
    <path
       style="fill:none;stroke:#000000;stroke-width:1px;stroke-linecap:butt;stroke-linejoin:miter;stroke-opacity:1"
       d="m 890.95454,885.35656 8.83883,-4.04061"
       id="path4058"
       inkscape:connector-curvature="0" />
    <path
       style="fill:none;stroke:#000000;stroke-width:1px;stroke-linecap:butt;stroke-linejoin:miter;stroke-opacity:1"
       d="m 892.72231,888.8921 3.03045,-1.51523"
       id="path4060"
       inkscape:connector-curvature="0" />
    <path
       style="fill:none;stroke:#000000;stroke-width:1px;stroke-linecap:butt;stroke-linejoin:miter;stroke-opacity:1"
       d="m 907.62206,841.16239 3.03045,14.14214"
       id="path4062"
       inkscape:connector-curvature="0" />
    <path
       style="fill:none;stroke:#000000;stroke-width:1px;stroke-linecap:butt;stroke-linejoin:miter;stroke-opacity:1"
       d="m 909.38982,840.90985 3.03046,7.32361"
       id="path4064"
       inkscape:connector-curvature="0" />
    <path
       style="fill:none;stroke:#000000;stroke-width:1px;stroke-linecap:butt;stroke-linejoin:miter;stroke-opacity:1"
       d="m 941.46217,860.10275 -8.08122,3.53553"
       id="path4066"
       inkscape:connector-curvature="0" />
    <path
       style="fill:none;stroke:#000000;stroke-width:1px;stroke-linecap:butt;stroke-linejoin:miter;stroke-opacity:1"
       d="m 942.21978,864.14336 -4.29315,0.50508"
       id="path4068"
       inkscape:connector-curvature="0" />
    <path
       style="fill:none;stroke:#000000;stroke-width:1px;stroke-linecap:butt;stroke-linejoin:miter;stroke-opacity:1"
       d="m 939.94694,856.56722 -4.79823,3.03045"
       id="path4070"
       inkscape:connector-curvature="0" />
    <path
       style="fill:none;stroke:#000000;stroke-width:1px;stroke-linecap:butt;stroke-linejoin:miter;stroke-opacity:1"
       d="m 931.36064,895.71063 -4.29315,-7.82868"
       id="path4072"
       inkscape:connector-curvature="0" />
    <path
       style="fill:none;stroke:#000000;stroke-width:1px;stroke-linecap:butt;stroke-linejoin:miter;stroke-opacity:1"
       d="m 928.58272,897.47839 -1.51523,-4.04061"
       id="path4074"
       inkscape:connector-curvature="0" />
    <path
       style="fill:none;stroke:#000000;stroke-width:1px;stroke-linecap:butt;stroke-linejoin:miter;stroke-opacity:1"
       d="m 934.64364,892.68017 -3.283,-4.54569"
       id="path4076"
       inkscape:connector-curvature="0" />
    <path
       style="fill:none;stroke:#000000;stroke-width:1px;stroke-linecap:butt;stroke-linejoin:miter;stroke-opacity:1"
       d="m 910.39998,901.519 2.27284,-10.35406"
       id="path4078"
       inkscape:connector-curvature="0" />
    <path
       style="fill:none;stroke:#000000;stroke-width:1px;stroke-linecap:butt;stroke-linejoin:miter;stroke-opacity:1"
       d="m 907.11698,900.50885 1.51523,-5.05076"
       id="path4080"
       inkscape:connector-curvature="0" />
    <path
       style="fill:none;stroke:#000000;stroke-width:1px;stroke-linecap:butt;stroke-linejoin:miter;stroke-opacity:1"
       d="m 889.18677,857.57737 9.09138,4.54569"
       id="path4082"
       inkscape:connector-curvature="0" />
    <path
       style="fill:none;stroke:#000000;stroke-width:1px;stroke-linecap:butt;stroke-linejoin:miter;stroke-opacity:1"
       d="m 925.71428,764 2.5,11.42857"
       id="path4084"
       inkscape:connector-curvature="0" />
    <path
       style="fill:none;stroke:#000000;stroke-width:1px;stroke-linecap:butt;stroke-linejoin:miter;stroke-opacity:1"
       d="m 921.42857,761.85714 1.42857,6.42858"
       id="path4086"
       inkscape:connector-curvature="0" />
    <path
       style="fill:none;stroke:#000000;stroke-width:1px;stroke-linecap:butt;stroke-linejoin:miter;stroke-opacity:1"
       d="M 952.85714,782.57143 961.42857,794"
       id="path4088"
       inkscape:connector-curvature="0" />
    <path
       style="fill:none;stroke:#000000;stroke-width:1px;stroke-linecap:butt;stroke-linejoin:miter;stroke-opacity:1"
       d="m 951.78571,785.47322 7.14286,10"
       id="path4090"
       inkscape:connector-curvature="0" />
    <path
       sodipodi:nodetypes="cccc"
       inkscape:connector-curvature="0"
       id="path4104"
       d="m 448.2313,667.55347 -51.422,-1.53368 -26.74613,-43.72118 -14.19818,3.65247"
       style="fill:none;stroke:#000000;stroke-width:6;stroke-linecap:round;stroke-linejoin:miter;stroke-miterlimit:4;stroke-opacity:1;stroke-dasharray:none" />
    <path
       sodipodi:nodetypes="cccc"
       inkscape:connector-curvature="0"
       id="path4106"
       d="m 441.72161,674.60578 -49.23205,16.15681 -37.71398,-32.45592 -12.44385,8.34103"
       style="fill:none;stroke:#000000;stroke-width:6;stroke-linecap:round;stroke-linejoin:miter;stroke-miterlimit:4;stroke-opacity:1;stroke-dasharray:none" />
    <path
       sodipodi:nodetypes="cccc"
       inkscape:connector-curvature="0"
       id="path4108"
       d="m 443.58048,671.26717 -51.21164,5.97392 -31.64962,-39.40778 -13.66409,5.68661"
       style="fill:none;stroke:#000000;stroke-width:6;stroke-linecap:round;stroke-linejoin:miter;stroke-miterlimit:4;stroke-opacity:1;stroke-dasharray:none" />
    <path
       style="fill:#000000;stroke:none"
       d="m 433.35545,629.53543 c 0,-28.28427 52.52793,-97.47971 75.76143,-51.0127 23.23351,46.46702 -75.76143,51.0127 -75.76143,51.0127 z"
       id="path4118"
       inkscape:connector-curvature="0"
       sodipodi:nodetypes="csc" />
  </g>
  <g
     inkscape:groupmode="layer"
     id="layer2"
     inkscape:label="jar"
     style="display:inline"
     sodipodi:insensitive="true">
    <g
       id="g3850"
       transform="matrix(-0.13351302,-0.47866162,0.75112145,-0.2124709,477.60805,686.00242)">
      <path
         sodipodi:nodetypes="csssssc"
         inkscape:connector-curvature="0"
         id="path2983"
         d="m 644.10941,69.004959 c 193.11082,-1.755551 310.73288,43.888831 310.73288,71.977671 0,28.08886 5.26665,52.6666 -1.75555,61.44436 -7.02222,8.77777 -36.86661,29.84441 -5.26667,57.93325 31.59996,28.08885 80.65283,29.66263 82.51103,68.46657 3.024,63.15192 4.4878,491.90078 -19.3111,533.68811 -38.73771,68.01771 -182.57752,98.31097 -368.66615,101.82207"
         style="fill:none;stroke:#000000;stroke-width:6.98849058;stroke-linecap:butt;stroke-linejoin:miter;stroke-miterlimit:4;stroke-opacity:1;stroke-dasharray:none" />
      <use
         style="stroke-width:6.98849058;stroke-miterlimit:4;stroke-dasharray:none"
         height="1024"
         width="1280"
         transform="matrix(-1,0,0,1,1289.8795,-1.4281531e-6)"
         id="use3753"
         xlink:href="#path2983"
         y="0"
         x="0" />
      <path
         inkscape:connector-curvature="0"
         id="path3762"
         d="M 612.31595,960.23497 C 488.96088,955.32089 395.87465,937.8604 337.75416,908.7345 c -27.82294,-13.94291 -52.3323,-36.20116 -57.99604,-52.66931 -7.46993,-21.71994 -12.8042,-87.43819 -16.32309,-201.10087 -1.80363,-58.25836 -2.83234,-263.22578 -1.50774,-300.40995 1.02037,-28.64357 1.39105,-32.2452 3.89675,-37.86159 4.59019,-10.28861 12.23612,-16.17361 38.77623,-29.84568 33.53301,-17.27445 45.77606,-26.82745 52.02472,-40.59381 5.47546,-12.06294 2.10559,-23.78641 -11.31842,-39.37561 l -7.95261,-9.23532 0.29384,-29.05905 c 0.32935,-32.57157 0.57079,-33.55903 10.01945,-40.97883 33.28172,-26.13536 118.84826,-46.836864 221.82167,-53.666331 27.32569,-1.812313 123.01642,-1.806058 150.20498,0.0098 88.64645,5.920545 158.36061,20.259569 202.53378,41.657761 10.8253,5.24391 16.0379,8.63516 21.5259,14.00442 8.3378,8.15733 8.0622,6.99516 9.3971,39.62848 1.0463,25.57535 0.6703,27.25384 -8.3693,37.36167 -10.2613,11.47385 -13.8515,18.77181 -13.8546,28.16249 -0.01,18.18824 12.5068,30.29154 52.6868,50.96274 27.32062,14.05551 36.12822,20.92179 40.81632,31.81954 2.7075,6.29365 2.8095,8.15497 3.8627,70.46037 1.6131,95.42698 -0.9686,273.29238 -5.1002,351.37158 -2.8051,53.01263 -7.4444,97.03209 -11.9055,112.96408 -6.0659,21.66339 -33.18632,45.2708 -71.47112,62.21331 -48.42524,21.43006 -119.46201,35.84428 -210.19098,42.65035 -22.63855,1.69824 -86.78463,4.6404 -91.24021,4.18487 -1.02413,-0.10458 -12.75501,-0.6243 -26.06864,-1.15467 l 0,0 z"
         style="fill:#ffffff;stroke-width:6.98849058;stroke-miterlimit:4;stroke-dasharray:none" />
      <path
         sodipodi:nodetypes="csc"
         inkscape:connector-curvature="0"
         id="path3764"
         d="m 335.04755,139.58777 c 0.62067,60.20613 240.82452,74.4818 315.30632,73.24044 74.4818,-1.24136 305.99611,-10.55158 304.13401,-72.61976"
         style="fill:none;stroke:#000000;stroke-width:6.98849058;stroke-linecap:butt;stroke-linejoin:miter;stroke-miterlimit:4;stroke-opacity:1;stroke-dasharray:none" />
      <use
         height="1024"
         width="1280"
         transform="translate(3.5139463e-7,49.155485)"
         id="use3766"
         xlink:href="#path3764"
         y="0"
         x="0"
         style="stroke-width:5.24136829;stroke-miterlimit:4;stroke-dasharray:none" />
      <path
         sodipodi:nodetypes="sssss"
         inkscape:connector-curvature="0"
         id="path3768"
         d="m 928.41928,142.20843 c 0,21.17698 -139.73046,52.86416 -283.65156,54.48204 -138.99457,1.56251 -282.41018,-35.78779 -282.41018,-56.96477 0,-21.17699 135.98082,-53.240675 284.89291,-53.240675 150.15346,0 281.16883,34.546415 281.16883,55.723405 z"
         style="fill:#ffffff;stroke:#000000;stroke-width:6.98849058;stroke-miterlimit:4;stroke-dasharray:none" />
      <path
         sodipodi:nodetypes="cc"
         inkscape:connector-curvature="0"
         id="path3771"
         d="M 397.11572,160.69095 C 544.83797,107.31231 774.4902,112.27778 896.14381,159.44958"
         style="fill:none;stroke:#000000;stroke-width:6.98849058;stroke-linecap:butt;stroke-linejoin:miter;stroke-miterlimit:4;stroke-opacity:1;stroke-dasharray:none" />
      <path
         sodipodi:nodetypes="ccccc"
         inkscape:connector-curvature="0"
         id="path3783"
         d="m 333.96135,185.67339 c 69.74964,40.93084 384.01573,58.9127 469.31296,31.18926 40.42034,-11.18164 25.98087,1.97066 -3.95683,11.48261 -157.69372,35.81209 -435.88537,-8.7502 -461.78721,-27.31 -9.32357,-5.88168 -12.05785,-15.10848 -3.56892,-15.36187 z"
         style="fill:#ffffff;stroke:#000000;stroke-width:5.24136829;stroke-linecap:butt;stroke-linejoin:miter;stroke-miterlimit:4;stroke-opacity:1;stroke-dasharray:none" />
      <path
         sodipodi:nodetypes="cccc"
         inkscape:connector-curvature="0"
         id="path3785"
         d="m 333.06685,164.12321 c 4.60833,5.04721 11.84999,5.92499 12.50832,9.4361 -0.87777,3.95 -4.82777,5.70554 -12.50832,3.0722 -5.70555,-2.85276 -6.58332,-12.94718 0,-12.5083 z"
         style="fill:#ffffff;stroke:#000000;stroke-width:3.68666124;stroke-linecap:butt;stroke-linejoin:miter;stroke-miterlimit:4;stroke-opacity:1;stroke-dasharray:none" />
      <path
         sodipodi:nodetypes="cccc"
         inkscape:connector-curvature="0"
         id="path3787"
         d="m 811.42076,241.68991 c -13.96533,-7.13784 120.37562,-24.1963 143.99812,-75.72317 4.9655,-13.34465 8.3792,2.48273 0.9311,11.48262 -10.3695,22.52752 -52.75798,47.48215 -144.92922,64.24055 z"
         style="fill:#ffffff;stroke:#000000;stroke-width:5.24136829;stroke-linecap:butt;stroke-linejoin:miter;stroke-miterlimit:4;stroke-opacity:1;stroke-dasharray:none" />
    </g>
    <g
       transform="matrix(-0.16533535,-0.54798498,0.70534412,-0.20940623,545.24482,718.15377)"
       style="display:inline"
       id="g3790">
      <path
         sodipodi:nodetypes="ccccc"
         inkscape:connector-curvature="0"
         id="rect3043"
         d="m 365.80636,406.12474 c 185.14416,34.42463 370.28831,33.92951 555.43247,0 l 0,357.2762 c -156.18149,46.06104 -340.01486,59.75386 -555.43247,0 z"
         style="fill:#ffffff;stroke:#000000;stroke-width:5.24136829;stroke-linecap:round;stroke-linejoin:round;stroke-miterlimit:4;stroke-dasharray:none;stroke-dashoffset:0;display:inline" />
      <g
         id="text3835"
         style="font-size:144px;font-style:normal;font-variant:normal;font-weight:normal;font-stretch:normal;text-align:center;line-height:100%;letter-spacing:0px;word-spacing:0px;writing-mode:lr-tb;text-anchor:middle;fill:#000000;fill-opacity:1;stroke:none;font-family:Lucida Handwriting;-inkscape-font-specification:Lucida Handwriting"
         transform="translate(-36.365491,-34.020305)">
        <path
           inkscape:connector-curvature="0"
           id="path3782"
           d="m 508.98795,524.06649 -24.38909,77.18216 c -1.36622,4.28274 -2.12349,7.09973 -2.27178,8.45099 -0.14329,1.30466 0.006,2.73576 0.4482,4.29331 -5.06024,1.84943 -9.50072,2.56441 -13.32147,2.14494 -2.42298,-0.26602 -3.52702,-1.37752 -3.31213,-3.33451 0.10739,-0.97849 0.89051,-3.81623 2.34936,-8.5132 l 25.81947,-81.8351 -9.71506,-1.0666 c -11.04306,-1.21231 -20.68684,-1.21006 -28.93135,0.007 2.21798,-6.02823 4.71605,-9.66797 7.49422,-10.91923 2.7781,-1.25106 8.57039,-1.39322 17.3769,-0.42647 l 47.31724,5.19489 c 12.72033,1.39665 21.63461,-2.26959 26.74287,-10.99873 1.32887,2.92825 1.9013,5.23104 1.71726,6.90836 -0.66515,6.05744 -4.95063,10.51481 -12.85643,13.37212 -4.76027,1.69384 -13.45396,1.84755 -26.08111,0.46114 z" />
        <path
           inkscape:connector-curvature="0"
           id="path3784"
           d="m 557.34487,592.15801 c -0.89249,13.70537 4.46149,20.93573 16.06197,21.69111 10.05676,0.65488 21.45485,-3.41776 34.19431,-12.21794 12.73928,-8.80015 24.48385,-20.71841 35.23374,-35.75484 l 5.74919,3.68606 c -10.283,16.52303 -23.12208,29.92017 -38.51725,40.19148 -15.39535,10.27132 -29.66499,14.97903 -42.80897,14.12313 -8.41971,-0.54828 -14.89691,-3.69456 -19.43164,-9.43887 -4.53478,-5.74429 -6.49604,-13.31742 -5.88379,-22.7194 0.8833,-13.56498 6.0707,-24.8768 15.56223,-33.93549 9.49145,-9.05857 20.48178,-13.18125 32.97101,-12.36807 6.03402,0.393 10.76464,2.22771 14.19187,5.50413 3.42706,3.27656 4.97463,7.4641 4.64271,12.56261 -0.5453,8.37294 -6.06819,15.45872 -16.56866,21.25736 -10.50061,5.79871 -22.2995,8.27162 -35.39672,7.41873 z m 0.99993,-6.69918 c 9.80963,0.1221 18.37696,-2.13847 25.70202,-6.78172 7.32494,-4.64316 11.20523,-10.30924 11.64087,-16.99825 0.3898,-5.98726 -2.08148,-9.15453 -7.41387,-9.50184 -6.36159,-0.41417 -12.45431,2.6182 -18.2782,9.09714 -5.82398,6.47906 -9.70758,14.54061 -11.65082,24.18467 z" />
        <path
           inkscape:connector-curvature="0"
           id="path3786"
           d="m 686.3,583.22666 c -6.1545,12.34613 -13.6801,22.81169 -22.57684,31.39671 -8.89685,8.58505 -16.6028,12.83694 -23.11788,12.7557 -4.96839,-0.062 -8.91312,-2.32616 -11.83419,-6.79262 -2.92112,-4.46645 -4.33578,-10.37907 -4.244,-17.73789 0.18293,-14.6707 4.78501,-27.52836 13.80627,-38.57304 9.02119,-11.04455 19.36728,-16.49408 31.03829,-16.34862 7.07751,0.0883 14.7135,2.38685 22.90799,6.89555 1.27293,-4.34376 6.26846,-6.46132 14.98663,-6.35268 0.56235,0.007 1.47605,0.0419 2.7411,0.1045 -2.72262,4.04456 -4.83108,9.59682 -6.32538,16.65679 l -1.26974,5.9612 c -1.44236,6.63883 -2.21902,14.41099 -2.32998,23.31651 -0.1281,10.26485 2.19834,15.42706 6.97931,15.48667 5.062,0.0631 12.03999,-4.08064 20.93398,-12.43135 8.89375,-8.35065 17.66407,-19.01164 26.311,-31.983 l 5.43661,3.86496 c -8.86423,15.35946 -18.93839,28.13717 -30.22252,38.33316 -11.28438,10.19604 -20.934,15.24407 -28.9489,15.14412 -10.1243,-0.12625 -15.08119,-8.62621 -14.87069,-25.49991 0.0438,-3.51532 0.2434,-8.24757 0.59894,-14.19676 z m 3.51397,-16.76217 c -9.76298,-6.54406 -17.90199,-9.85673 -24.41704,-9.93805 -7.07763,-0.0882 -13.24796,4.13598 -18.51102,12.67252 -5.26314,8.53664 -7.96833,18.71072 -8.11559,30.52227 -0.1181,9.46803 2.91637,14.24061 9.10343,14.31775 6.70255,0.0836 19.70539,-14.47414 39.00853,-43.67324 0.23896,-0.372 1.21618,-1.67241 2.93169,-3.90125 z" />
        <path
           inkscape:connector-curvature="0"
           id="path3788"
           d="m 760.69861,600.2163 c 13.70981,-36.95864 27.00892,-56.00106 39.89738,-57.12733 5.65026,-0.49364 8.83246,3.34549 9.54662,11.51739 0.30594,3.50236 -0.21861,11.50024 -1.57363,23.99369 l -2.3482,21.59105 c 6.67031,-17.89854 13.98575,-32.45385 21.94633,-43.66598 7.96037,-11.21198 15.1627,-17.09955 21.60702,-17.66273 7.09781,-0.62013 11.00994,3.2258 11.73639,11.53779 0.261,2.98869 -0.19191,9.92161 -1.35873,20.79879 l -1.21661,11.11685 c -0.73232,6.69857 -0.95968,11.63554 -0.68208,14.8109 0.48951,5.60368 2.71895,8.23208 6.68834,7.88523 8.96569,-0.78341 21.28462,-18.65795 36.95683,-53.62369 l 6.1715,2.77802 c -16.81471,41.27663 -32.78688,62.57593 -47.91658,63.89796 -9.66642,0.84464 -15.05041,-5.03714 -16.15199,-17.64536 -0.36736,-4.2027 -0.023,-11.03203 1.03298,-20.488 l 1.11664,-9.83767 c 0.73614,-6.65177 1.03491,-10.77154 0.8963,-12.35931 -0.17558,-2.0079 -1.29064,-2.92212 -3.34519,-2.74266 -5.0434,0.44076 -13.20403,11.24682 -24.48193,32.41822 -10.21902,19.29091 -15.21423,30.24386 -14.98564,32.85889 0.0244,0.28019 0.16063,0.76235 0.40871,1.44647 -0.6416,0.19723 -1.75916,0.60073 -3.35267,1.2105 -0.68013,0.2947 -1.72061,0.50325 -3.12145,0.62566 -4.3429,0.37948 -6.69588,-1.50881 -7.05897,-5.66485 -0.11024,-1.26081 0.25767,-5.12782 1.10372,-11.60105 0.31366,-2.33302 0.61311,-4.82949 0.89834,-7.48944 l 1.64436,-15.10673 c 1.21359,-10.88127 1.72657,-17.39596 1.53895,-19.54409 -0.27346,-3.12863 -1.55423,-4.59302 -3.84231,-4.39315 -5.04335,0.44075 -11.67863,10.1254 -19.90585,29.05399 -8.19287,18.78449 -12.1383,29.90451 -11.83632,33.36008 0.0856,0.98064 0.54287,1.90529 1.37168,2.77394 -2.47045,1.34515 -4.77969,2.11158 -6.92772,2.29927 -4.85652,0.42436 -7.51327,-1.97849 -7.97024,-7.20857 -0.0571,-0.65375 0.0496,-7.50937 0.32028,-20.56688 l 0.30737,-15.06049 c 0.10334,-5.27899 -0.0388,-10.13661 -0.4264,-14.57289 -0.48967,-5.60358 -1.99282,-9.61295 -4.50946,-12.02812 5.24546,-2.43452 8.98893,-3.74975 11.23042,-3.94568 4.1093,-0.359 6.37615,1.88971 6.80055,6.74613 0.15093,1.72786 0.15162,8.19766 0.002,19.40944 z" />
      </g>
      <g
         id="text3851"
         style="font-size:144px;font-style:normal;font-variant:normal;font-weight:normal;font-stretch:normal;text-align:center;line-height:100%;letter-spacing:0px;word-spacing:0px;writing-mode:lr-tb;text-anchor:middle;fill:#000000;fill-opacity:1;stroke:none;font-family:Lucida Handwriting;-inkscape-font-specification:Lucida Handwriting"
         transform="translate(-36.365491,97.979695)">
        <path
           inkscape:connector-curvature="0"
           id="path3775"
           d="m 479.85833,641.18421 c -0.23504,1.06152 -0.37735,1.87244 -0.42692,2.43278 -0.26841,3.035 0.54783,5.77773 2.4487,8.22819 1.9009,2.45039 4.27547,3.80156 7.12372,4.0535 6.53698,0.5781 12.20557,-3.39106 17.00577,-11.9075 2.11707,-3.7186 5.48377,-13.58535 10.10012,-29.60029 l 8.81273,-30.20826 c 3.27488,-10.95718 5.10849,-18.65368 5.50084,-23.08954 0.23535,-2.66143 -0.34305,-4.90078 -1.73521,-6.71805 6.14721,-0.86801 10.01461,-1.23184 11.6022,-1.09149 3.45522,0.30565 4.96604,2.90981 4.53249,7.81249 -0.3139,3.5487 -1.4452,8.62501 -3.3939,15.22896 l -11.75444,40.32438 c -4.65893,15.96411 -9.95814,26.93052 -15.89767,32.89924 -9.40246,9.47408 -19.19319,13.76102 -29.37221,12.86081 -4.15564,-0.36757 -7.71405,-1.63521 -10.67523,-3.8029 -2.96114,-2.16778 -4.33022,-4.51235 -4.10725,-7.03372 0.28084,-3.17514 3.69292,-6.638 10.23626,-10.3886 z m 64.34716,-113.81274 0.97435,0.15676 c 3.14488,0.09 7.79113,-1.09905 13.93877,-3.56715 6.14751,-2.46791 11.01723,-5.11952 14.60917,-7.95483 -2.62444,6.26199 -6.76678,11.33083 -12.42704,15.20652 -8.52423,5.92842 -14.18709,8.7687 -16.9886,8.52085 -1.82106,-0.16098 -2.6304,-1.38548 -2.428,-3.6735 0.28902,-3.26841 1.06281,-6.16462 2.32135,-8.68865 z" />
        <path
           inkscape:connector-curvature="0"
           id="path3777"
           d="m 618.4593,581.86044 c -6.61446,12.10592 -14.52834,22.28105 -23.74166,30.52541 -9.21343,8.24437 -17.07384,12.20345 -23.58125,11.87724 -4.96255,-0.24877 -8.81933,-2.65973 -11.57036,-7.23289 -2.75107,-4.57314 -3.94236,-10.53479 -3.57389,-17.88495 0.73454,-14.65344 5.81693,-27.32893 15.24718,-38.02651 9.43018,-10.69746 19.9739,-15.75404 31.63119,-15.16975 7.06918,0.35445 14.61332,2.93852 22.63245,7.75222 1.43539,-4.29282 6.50703,-6.22101 15.21494,-5.78456 0.56169,0.0282 1.47343,0.0974 2.73523,0.20751 -2.87281,3.93931 -5.18858,9.40835 -6.94734,16.40713 l -1.49304,5.90922 c -1.69102,6.57989 -2.75943,14.31734 -3.20524,23.21238 -0.51405,10.25277 1.61659,15.49883 6.39194,15.7382 5.05605,0.25347 12.18494,-3.62494 21.3867,-11.63525 9.20152,-8.01026 18.36658,-18.33387 27.49523,-30.97085 l 5.2874,4.06669 c -9.4356,15.01522 -19.98319,27.40501 -31.6428,37.16941 -11.65985,9.76443 -21.4925,14.44598 -29.49797,14.04467 -10.11238,-0.50692 -14.7461,-9.18729 -13.90115,-26.04113 0.17593,-3.51119 0.55341,-8.23258 1.13244,-14.16419 z m 4.14189,-16.61816 c -9.50996,-6.9066 -17.51862,-10.52303 -24.02601,-10.84931 -7.0693,-0.35431 -13.39414,3.63481 -18.97452,11.96737 -5.58047,8.33267 -8.66638,18.39781 -9.25775,30.19546 -0.4741,9.45689 2.37873,14.34022 8.55851,14.64999 6.69467,0.33561 20.2358,-13.7228 40.62344,-42.17528 0.25277,-0.36275 1.27821,-1.62549 3.07633,-3.78823 z" />
        <path
           inkscape:connector-curvature="0"
           id="path3779"
           d="m 692.62795,601.87782 c 15.79545,-36.11653 30.15901,-54.36944 43.09072,-54.75877 5.66922,-0.17057 8.62728,3.84381 8.87418,12.04314 0.10568,3.5141 -0.87417,11.46905 -2.93956,23.86487 l -3.57584,21.42198 c 7.68031,-17.48896 15.81401,-31.60334 24.40112,-42.34318 8.58689,-10.7397 16.1133,-16.2069 22.57925,-16.40161 7.12163,-0.21429 10.80803,3.84851 11.05922,12.1884 0.0901,2.99871 -0.75748,9.89451 -2.54279,20.68743 l -1.84868,11.02937 c -1.11319,6.6459 -1.62176,11.56186 -1.52572,14.74789 0.1691,5.62247 2.245,8.37376 6.22772,8.25387 8.99577,-0.27077 22.31413,-17.4136 39.95512,-51.42855 l 6.00301,3.12549 c -19.14157,40.25041 -36.30257,60.60405 -51.48303,61.061 -9.69887,0.29194 -14.73862,-5.88735 -15.11929,-18.53787 -0.12705,-4.21682 0.60623,-11.01539 2.19985,-20.39574 l 1.67592,-9.75796 c 1.11433,-6.59896 1.64758,-10.69498 1.59976,-12.28807 -0.0608,-2.01465 -1.12188,-2.99098 -3.18332,-2.92899 -5.06033,0.15238 -13.82401,10.47541 -26.29107,30.96911 -11.30265,18.67665 -16.91444,29.32687 -16.83538,31.95068 0.008,0.28112 0.1169,0.77027 0.32555,1.46743 -0.6518,0.16031 -1.79055,0.49941 -3.41625,1.01731 -0.69583,0.25542 -1.74652,0.40429 -3.15205,0.4466 -4.35748,0.13116 -6.59893,-1.88825 -6.72438,-6.05824 -0.0381,-1.26504 0.54971,-5.10478 1.76359,-11.51921 0.44621,-2.31133 0.88756,-4.78667 1.32405,-7.42602 l 2.5033,-14.98835 c 1.83223,-10.79434 2.71594,-17.26916 2.65115,-19.4245 -0.0946,-3.13914 -1.28974,-4.67418 -3.58549,-4.60514 -5.06028,0.15238 -12.23713,9.44282 -21.53056,27.87135 -9.25091,18.28663 -13.82416,29.16351 -13.71976,32.63068 0.0296,0.98394 0.43332,1.93315 1.21123,2.84766 -2.54315,1.20206 -4.89234,1.83553 -7.04758,1.9004 -4.87282,0.14668 -7.38819,-2.40379 -7.54612,-7.65142 -0.0198,-0.65594 0.47783,-7.49432 1.49281,-20.51514 l 1.16585,-15.01844 c 0.40426,-5.2645 0.53941,-10.12232 0.40546,-14.57348 -0.16927,-5.62239 -1.4413,-9.71097 -3.81608,-12.26574 5.37577,-2.13139 9.18816,-3.23096 11.43718,-3.29873 4.12309,-0.12404 6.25799,2.2503 6.40471,7.12303 0.0521,1.73365 -0.31619,8.19296 -1.10497,19.37795 z" />
      </g>
    </g>
    <path
       style="fill:#ffffff;stroke:#000000;stroke-width:4;stroke-linecap:butt;stroke-linejoin:miter;stroke-miterlimit:4;stroke-opacity:1;stroke-dasharray:none"
       d="m 545.42289,454.55751 c -5.31689,23.70269 28.65169,69.80729 -1.68418,73.48553 -33.29522,4.03706 -43.62039,-42.91482 1.68418,-73.48553 z"
       id="path3888"
       inkscape:connector-curvature="0"
       sodipodi:nodetypes="csc" />
  </g>
</svg>
