name, float, date, days
0.35, 0.35, 2003-11-02, 0
0.36, 0.36, 2003-12-11, 39
0.37, 0.37, 2004-02-11, 101
0.38.1, 0.381, 2004-04-09, 159
0.39, 0.39, 2004-07-16, 257
0.40, 0.40, 2004-11-29, 393
0.41, 0.41, 2005-02-09, 465
0.42, 0.42, 2005-07-26, 632
0.42.2, 0.422, 2005-08-22, 659
0.43, 0.43, 2005-11-19, 748
0.44, 0.44, 2006-06-23, 964
0.44.1, 0.441, 2006-09-07, 1040
0.45, 0.45, 2007-02-05, 1191
0.45.1, 0.451, 2007-03-20, 1234
0.46, 0.46, 2008-03-11, 1591
0.47, 0.47, 2009-11-21, 2211
0.48, 0.48, 2010-08-23, 2486
0.48.1, 0.481, 2011-03-04, 2679
0.48.2, 0.482, 2011-09-06, 2865
0.48.3, 0.483, 2012-02-15, 3027
0.48.3.1, 0.4831, 2012-06-30, 3163
0.48.4, 0.484, 2012-12-17, 3333
0.48.5, 0.485, 2014-07-18, 3911
0.91, 0.91, 2015-01-28, 4105
0.92, 0.92, 2017-01-01, 4809
0.92.1, 0.921, 2017-02-13, 4852
0.92.2, 0.922, 2017-08-07, 5027
0.92.3, 0.923, 2018-03-23, 5255
0.92.4, 0.924, 2019-01-16, 5554
1.0alpha, 1.0, 2019-01-16, 5554.5
1.0alpha2, 1.0, 2019-06-15, 5704
1.0beta0, 1.0, 2019-09-08, 5789
